%YAML 1.1
%TAG !u! tag:unity3d.com,2011:
--- !u!1 &8841940615519249757
GameObject:
  m_ObjectHideFlags: 0
  m_CorrespondingSourceObject: {fileID: 0}
  m_PrefabInstance: {fileID: 0}
  m_PrefabAsset: {fileID: 0}
  serializedVersion: 6
  m_Component:
  - component: {fileID: 8841940615519249756}
  m_Layer: 9
  m_Name: EmitterHolderAttack1
  m_TagString: Untagged
  m_Icon: {fileID: 0}
  m_NavMeshLayer: 0
  m_StaticEditorFlags: 0
  m_IsActive: 1
--- !u!4 &8841940615519249756
Transform:
  m_ObjectHideFlags: 0
  m_CorrespondingSourceObject: {fileID: 0}
  m_PrefabInstance: {fileID: 0}
  m_PrefabAsset: {fileID: 0}
  m_GameObject: {fileID: 8841940615519249757}
  m_LocalRotation: {x: -0, y: -0, z: -0, w: 1}
  m_LocalPosition: {x: -0.26, y: 2.248, z: 2.498}
  m_LocalScale: {x: 1, y: 1, z: 1}
  m_Children:
  - {fileID: 6225588441107883344}
  m_Father: {fileID: 0}
  m_RootOrder: 0
  m_LocalEulerAnglesHint: {x: 0, y: 0, z: 0}
--- !u!1001 &8841940616619692165
PrefabInstance:
  m_ObjectHideFlags: 0
  serializedVersion: 2
  m_Modification:
    m_TransformParent: {fileID: 8841940615519249756}
    m_Modifications:
    - target: {fileID: 3229460913760531924, guid: 461d81d2f9d7fd34cb99b71428271c5a,
        type: 3}
      propertyPath: m_Name
      value: EmitterHolderCircle (1)
      objectReference: {fileID: 0}
    - target: {fileID: 3229460913760531924, guid: 461d81d2f9d7fd34cb99b71428271c5a,
        type: 3}
      propertyPath: m_TagString
      value: LB_AttackEmitterHolder
      objectReference: {fileID: 0}
    - target: {fileID: 3229460914570830616, guid: 461d81d2f9d7fd34cb99b71428271c5a,
        type: 3}
      propertyPath: m_TagString
      value: Untagged
      objectReference: {fileID: 0}
    - target: {fileID: 3229460914562551470, guid: 461d81d2f9d7fd34cb99b71428271c5a,
        type: 3}
      propertyPath: m_TagString
      value: Untagged
      objectReference: {fileID: 0}
    - target: {fileID: 3229460913376472077, guid: 461d81d2f9d7fd34cb99b71428271c5a,
        type: 3}
      propertyPath: m_TagString
      value: Untagged
      objectReference: {fileID: 0}
    - target: {fileID: 3229460913707650255, guid: 461d81d2f9d7fd34cb99b71428271c5a,
        type: 3}
      propertyPath: m_TagString
      value: Untagged
      objectReference: {fileID: 0}
    - target: {fileID: 3229460915013885946, guid: 461d81d2f9d7fd34cb99b71428271c5a,
        type: 3}
      propertyPath: m_TagString
      value: Untagged
      objectReference: {fileID: 0}
    - target: {fileID: 3229460915017680308, guid: 461d81d2f9d7fd34cb99b71428271c5a,
        type: 3}
      propertyPath: m_TagString
      value: Untagged
      objectReference: {fileID: 0}
    - target: {fileID: 3229460914498906002, guid: 461d81d2f9d7fd34cb99b71428271c5a,
        type: 3}
      propertyPath: m_TagString
      value: Untagged
      objectReference: {fileID: 0}
    - target: {fileID: 3229460914939974495, guid: 461d81d2f9d7fd34cb99b71428271c5a,
        type: 3}
      propertyPath: m_TagString
      value: Untagged
      objectReference: {fileID: 0}
    - target: {fileID: 3229460913141079244, guid: 461d81d2f9d7fd34cb99b71428271c5a,
        type: 3}
      propertyPath: m_TagString
      value: Untagged
      objectReference: {fileID: 0}
    - target: {fileID: 3229460914722491805, guid: 461d81d2f9d7fd34cb99b71428271c5a,
        type: 3}
      propertyPath: m_TagString
      value: Untagged
      objectReference: {fileID: 0}
    - target: {fileID: 3229460913760531925, guid: 461d81d2f9d7fd34cb99b71428271c5a,
        type: 3}
      propertyPath: m_LocalPosition.x
      value: 0
      objectReference: {fileID: 0}
    - target: {fileID: 3229460913760531925, guid: 461d81d2f9d7fd34cb99b71428271c5a,
        type: 3}
      propertyPath: m_LocalPosition.y
      value: 0
      objectReference: {fileID: 0}
    - target: {fileID: 3229460913760531925, guid: 461d81d2f9d7fd34cb99b71428271c5a,
        type: 3}
      propertyPath: m_LocalPosition.z
      value: 0
      objectReference: {fileID: 0}
    - target: {fileID: 3229460913760531925, guid: 461d81d2f9d7fd34cb99b71428271c5a,
        type: 3}
      propertyPath: m_LocalRotation.x
      value: 0.10729229
      objectReference: {fileID: 0}
    - target: {fileID: 3229460913760531925, guid: 461d81d2f9d7fd34cb99b71428271c5a,
        type: 3}
      propertyPath: m_LocalRotation.y
      value: -0.31918827
      objectReference: {fileID: 0}
    - target: {fileID: 3229460913760531925, guid: 461d81d2f9d7fd34cb99b71428271c5a,
        type: 3}
      propertyPath: m_LocalRotation.z
      value: 0.04242202
      objectReference: {fileID: 0}
    - target: {fileID: 3229460913760531925, guid: 461d81d2f9d7fd34cb99b71428271c5a,
        type: 3}
      propertyPath: m_LocalRotation.w
      value: 0.9406422
      objectReference: {fileID: 0}
    - target: {fileID: 3229460913760531925, guid: 461d81d2f9d7fd34cb99b71428271c5a,
        type: 3}
      propertyPath: m_RootOrder
      value: 0
      objectReference: {fileID: 0}
    - target: {fileID: 3229460913760531925, guid: 461d81d2f9d7fd34cb99b71428271c5a,
        type: 3}
      propertyPath: m_LocalEulerAnglesHint.x
      value: 13.234
      objectReference: {fileID: 0}
    - target: {fileID: 3229460913760531925, guid: 461d81d2f9d7fd34cb99b71428271c5a,
        type: 3}
      propertyPath: m_LocalEulerAnglesHint.y
      value: -37.41
      objectReference: {fileID: 0}
    - target: {fileID: 3229460913760531925, guid: 461d81d2f9d7fd34cb99b71428271c5a,
        type: 3}
      propertyPath: m_LocalEulerAnglesHint.z
      value: 0.666
      objectReference: {fileID: 0}
    - target: {fileID: 3229460913760531925, guid: 461d81d2f9d7fd34cb99b71428271c5a,
        type: 3}
      propertyPath: m_LocalScale.x
      value: 1.250001
      objectReference: {fileID: 0}
    - target: {fileID: 3229460913760531925, guid: 461d81d2f9d7fd34cb99b71428271c5a,
        type: 3}
      propertyPath: m_LocalScale.y
      value: 1.25
      objectReference: {fileID: 0}
    - target: {fileID: 3229460913760531925, guid: 461d81d2f9d7fd34cb99b71428271c5a,
        type: 3}
      propertyPath: m_LocalScale.z
      value: 1.250001
      objectReference: {fileID: 0}
    - target: {fileID: 3229460914371733434, guid: 461d81d2f9d7fd34cb99b71428271c5a,
        type: 3}
      propertyPath: m_TagString
      value: Untagged
      objectReference: {fileID: 0}
    - target: {fileID: 3229460913342532608, guid: 461d81d2f9d7fd34cb99b71428271c5a,
        type: 3}
      propertyPath: m_TagString
      value: Untagged
      objectReference: {fileID: 0}
    - target: {fileID: 3229460913375822438, guid: 461d81d2f9d7fd34cb99b71428271c5a,
        type: 3}
      propertyPath: m_LocalScale.y
      value: 0.1
      objectReference: {fileID: 0}
    - target: {fileID: 3229460913175165851, guid: 461d81d2f9d7fd34cb99b71428271c5a,
        type: 3}
      propertyPath: m_LocalScale.y
      value: 0.1
      objectReference: {fileID: 0}
    - target: {fileID: 3229460914521457777, guid: 461d81d2f9d7fd34cb99b71428271c5a,
        type: 3}
      propertyPath: m_LocalScale.y
      value: 0.1
      objectReference: {fileID: 0}
    - target: {fileID: 3229460913860612528, guid: 461d81d2f9d7fd34cb99b71428271c5a,
        type: 3}
      propertyPath: m_LocalScale.y
      value: 0.1
      objectReference: {fileID: 0}
    - target: {fileID: 3229460913894908770, guid: 461d81d2f9d7fd34cb99b71428271c5a,
        type: 3}
      propertyPath: m_LocalScale.y
      value: 0.1
      objectReference: {fileID: 0}
    - target: {fileID: 3229460913278505548, guid: 461d81d2f9d7fd34cb99b71428271c5a,
        type: 3}
      propertyPath: m_LocalScale.y
      value: 0.1
      objectReference: {fileID: 0}
    - target: {fileID: 3229460913219079461, guid: 461d81d2f9d7fd34cb99b71428271c5a,
        type: 3}
      propertyPath: m_LocalScale.y
      value: 0.1
      objectReference: {fileID: 0}
    - target: {fileID: 3229460914941458132, guid: 461d81d2f9d7fd34cb99b71428271c5a,
        type: 3}
      propertyPath: m_LocalScale.y
      value: 0.1
      objectReference: {fileID: 0}
    - target: {fileID: 3229460914619738026, guid: 461d81d2f9d7fd34cb99b71428271c5a,
        type: 3}
      propertyPath: m_LocalScale.y
      value: 0.1
      objectReference: {fileID: 0}
    - target: {fileID: 3229460913144197644, guid: 461d81d2f9d7fd34cb99b71428271c5a,
        type: 3}
      propertyPath: m_LocalScale.y
      value: 0.1
      objectReference: {fileID: 0}
    - target: {fileID: 3229460912942616707, guid: 461d81d2f9d7fd34cb99b71428271c5a,
        type: 3}
      propertyPath: m_LocalScale.y
      value: 0.1
      objectReference: {fileID: 0}
    - target: {fileID: 3229460914529023036, guid: 461d81d2f9d7fd34cb99b71428271c5a,
        type: 3}
      propertyPath: m_LocalScale.y
      value: 0.1
      objectReference: {fileID: 0}
    - target: {fileID: 3229460913774327935, guid: 461d81d2f9d7fd34cb99b71428271c5a,
        type: 3}
      propertyPath: m_LocalRotation.x
      value: -0.5
      objectReference: {fileID: 0}
    - target: {fileID: 3229460913774327935, guid: 461d81d2f9d7fd34cb99b71428271c5a,
        type: 3}
      propertyPath: m_LocalRotation.w
      value: 0.8660254
      objectReference: {fileID: 0}
    - target: {fileID: 3229460913774327935, guid: 461d81d2f9d7fd34cb99b71428271c5a,
        type: 3}
      propertyPath: m_LocalEulerAnglesHint.x
      value: -60
      objectReference: {fileID: 0}
    - target: {fileID: 3229460915017680309, guid: 461d81d2f9d7fd34cb99b71428271c5a,
        type: 3}
      propertyPath: m_LocalRotation.x
      value: -0.258819
      objectReference: {fileID: 0}
    - target: {fileID: 3229460915017680309, guid: 461d81d2f9d7fd34cb99b71428271c5a,
        type: 3}
      propertyPath: m_LocalRotation.w
      value: 0.9659259
      objectReference: {fileID: 0}
    - target: {fileID: 3229460915017680309, guid: 461d81d2f9d7fd34cb99b71428271c5a,
        type: 3}
      propertyPath: m_LocalEulerAnglesHint.x
      value: -30
      objectReference: {fileID: 0}
    - target: {fileID: 3229460914909920072, guid: 461d81d2f9d7fd34cb99b71428271c5a,
        type: 3}
      propertyPath: m_LocalRotation.x
      value: -0.38268343
      objectReference: {fileID: 0}
    - target: {fileID: 3229460914909920072, guid: 461d81d2f9d7fd34cb99b71428271c5a,
        type: 3}
      propertyPath: m_LocalRotation.w
      value: 0.92387956
      objectReference: {fileID: 0}
    - target: {fileID: 3229460914909920072, guid: 461d81d2f9d7fd34cb99b71428271c5a,
        type: 3}
      propertyPath: m_LocalEulerAnglesHint.x
      value: -45
      objectReference: {fileID: 0}
    - target: {fileID: 3229460913304309526, guid: 461d81d2f9d7fd34cb99b71428271c5a,
        type: 3}
      propertyPath: m_LocalRotation.x
      value: 0.08715578
      objectReference: {fileID: 0}
    - target: {fileID: 3229460913304309526, guid: 461d81d2f9d7fd34cb99b71428271c5a,
        type: 3}
      propertyPath: m_LocalRotation.w
      value: 0.9961947
      objectReference: {fileID: 0}
    - target: {fileID: 3229460913304309526, guid: 461d81d2f9d7fd34cb99b71428271c5a,
        type: 3}
      propertyPath: m_LocalEulerAnglesHint.x
      value: 10
      objectReference: {fileID: 0}
    - target: {fileID: 3229460914134981974, guid: 461d81d2f9d7fd34cb99b71428271c5a,
        type: 3}
      propertyPath: m_LocalRotation.x
      value: 0.5
      objectReference: {fileID: 0}
    - target: {fileID: 3229460914134981974, guid: 461d81d2f9d7fd34cb99b71428271c5a,
        type: 3}
      propertyPath: m_LocalRotation.w
      value: 0.8660254
      objectReference: {fileID: 0}
    - target: {fileID: 3229460914134981974, guid: 461d81d2f9d7fd34cb99b71428271c5a,
        type: 3}
      propertyPath: m_LocalEulerAnglesHint.x
      value: 60
      objectReference: {fileID: 0}
    - target: {fileID: 3229460913342532609, guid: 461d81d2f9d7fd34cb99b71428271c5a,
        type: 3}
      propertyPath: m_LocalRotation.x
      value: -0.258819
      objectReference: {fileID: 0}
    - target: {fileID: 3229460913342532609, guid: 461d81d2f9d7fd34cb99b71428271c5a,
        type: 3}
      propertyPath: m_LocalRotation.w
      value: 0.9659259
      objectReference: {fileID: 0}
    - target: {fileID: 3229460913342532609, guid: 461d81d2f9d7fd34cb99b71428271c5a,
        type: 3}
      propertyPath: m_LocalEulerAnglesHint.x
      value: -30
      objectReference: {fileID: 0}
    - target: {fileID: 3229460913846460294, guid: 461d81d2f9d7fd34cb99b71428271c5a,
        type: 3}
      propertyPath: m_LocalRotation.x
      value: -0.13052624
      objectReference: {fileID: 0}
    - target: {fileID: 3229460913846460294, guid: 461d81d2f9d7fd34cb99b71428271c5a,
        type: 3}
      propertyPath: m_LocalRotation.w
      value: 0.9914449
      objectReference: {fileID: 0}
    - target: {fileID: 3229460913846460294, guid: 461d81d2f9d7fd34cb99b71428271c5a,
        type: 3}
      propertyPath: m_LocalEulerAnglesHint.x
      value: -15
      objectReference: {fileID: 0}
    - target: {fileID: 3229460913141079245, guid: 461d81d2f9d7fd34cb99b71428271c5a,
        type: 3}
      propertyPath: m_LocalRotation.x
      value: 0.13052616
      objectReference: {fileID: 0}
    - target: {fileID: 3229460913141079245, guid: 461d81d2f9d7fd34cb99b71428271c5a,
        type: 3}
      propertyPath: m_LocalRotation.w
      value: 0.9914449
      objectReference: {fileID: 0}
    - target: {fileID: 3229460913141079245, guid: 461d81d2f9d7fd34cb99b71428271c5a,
        type: 3}
      propertyPath: m_LocalEulerAnglesHint.x
      value: 15
      objectReference: {fileID: 0}
    - target: {fileID: 3229460913707650252, guid: 461d81d2f9d7fd34cb99b71428271c5a,
        type: 3}
      propertyPath: m_LocalRotation.x
      value: 0.17364816
      objectReference: {fileID: 0}
    - target: {fileID: 3229460913707650252, guid: 461d81d2f9d7fd34cb99b71428271c5a,
        type: 3}
      propertyPath: m_LocalRotation.w
      value: 0.9848078
      objectReference: {fileID: 0}
    - target: {fileID: 3229460913707650252, guid: 461d81d2f9d7fd34cb99b71428271c5a,
        type: 3}
      propertyPath: m_LocalEulerAnglesHint.x
      value: 20
      objectReference: {fileID: 0}
    - target: {fileID: 3229460914722491794, guid: 461d81d2f9d7fd34cb99b71428271c5a,
        type: 3}
      propertyPath: m_LocalRotation.x
      value: -0.258819
      objectReference: {fileID: 0}
    - target: {fileID: 3229460914722491794, guid: 461d81d2f9d7fd34cb99b71428271c5a,
        type: 3}
      propertyPath: m_LocalRotation.w
      value: 0.9659259
      objectReference: {fileID: 0}
    - target: {fileID: 3229460914722491794, guid: 461d81d2f9d7fd34cb99b71428271c5a,
        type: 3}
      propertyPath: m_LocalEulerAnglesHint.x
      value: -30
      objectReference: {fileID: 0}
    - target: {fileID: 3229460914371733435, guid: 461d81d2f9d7fd34cb99b71428271c5a,
        type: 3}
      propertyPath: m_LocalRotation.x
      value: -0.08715578
      objectReference: {fileID: 0}
    - target: {fileID: 3229460914371733435, guid: 461d81d2f9d7fd34cb99b71428271c5a,
        type: 3}
      propertyPath: m_LocalRotation.w
      value: 0.9961947
      objectReference: {fileID: 0}
    - target: {fileID: 3229460914371733435, guid: 461d81d2f9d7fd34cb99b71428271c5a,
        type: 3}
      propertyPath: m_LocalEulerAnglesHint.x
      value: -10
      objectReference: {fileID: 0}
    - target: {fileID: 3229460913376472066, guid: 461d81d2f9d7fd34cb99b71428271c5a,
        type: 3}
      propertyPath: m_LocalRotation.x
      value: 0.3420201
      objectReference: {fileID: 0}
    - target: {fileID: 3229460913376472066, guid: 461d81d2f9d7fd34cb99b71428271c5a,
        type: 3}
      propertyPath: m_LocalRotation.w
      value: 0.9396927
      objectReference: {fileID: 0}
    - target: {fileID: 3229460913376472066, guid: 461d81d2f9d7fd34cb99b71428271c5a,
        type: 3}
      propertyPath: m_LocalEulerAnglesHint.x
      value: 40
      objectReference: {fileID: 0}
    - target: {fileID: 3229460912955362339, guid: 461d81d2f9d7fd34cb99b71428271c5a,
        type: 3}
      propertyPath: m_LocalRotation.x
      value: 0
      objectReference: {fileID: 0}
    - target: {fileID: 3229460912955362339, guid: 461d81d2f9d7fd34cb99b71428271c5a,
        type: 3}
      propertyPath: m_LocalRotation.w
      value: 1
      objectReference: {fileID: 0}
    - target: {fileID: 3229460912955362339, guid: 461d81d2f9d7fd34cb99b71428271c5a,
        type: 3}
      propertyPath: m_LocalEulerAnglesHint.x
      value: 0
      objectReference: {fileID: 0}
    - target: {fileID: 3229460914186749719, guid: 461d81d2f9d7fd34cb99b71428271c5a,
        type: 3}
      propertyPath: m_LocalRotation.x
      value: 0.043619405
      objectReference: {fileID: 0}
    - target: {fileID: 3229460914186749719, guid: 461d81d2f9d7fd34cb99b71428271c5a,
        type: 3}
      propertyPath: m_LocalRotation.w
      value: 0.9990483
      objectReference: {fileID: 0}
    - target: {fileID: 3229460914186749719, guid: 461d81d2f9d7fd34cb99b71428271c5a,
        type: 3}
      propertyPath: m_LocalEulerAnglesHint.x
      value: 5
      objectReference: {fileID: 0}
    - target: {fileID: 3229460914562551471, guid: 461d81d2f9d7fd34cb99b71428271c5a,
        type: 3}
      propertyPath: m_LocalRotation.x
      value: -0.17364825
      objectReference: {fileID: 0}
    - target: {fileID: 3229460914562551471, guid: 461d81d2f9d7fd34cb99b71428271c5a,
        type: 3}
      propertyPath: m_LocalRotation.w
      value: 0.9848078
      objectReference: {fileID: 0}
    - target: {fileID: 3229460914562551471, guid: 461d81d2f9d7fd34cb99b71428271c5a,
        type: 3}
      propertyPath: m_LocalEulerAnglesHint.x
      value: -20
      objectReference: {fileID: 0}
    - target: {fileID: 3229460913408000729, guid: 461d81d2f9d7fd34cb99b71428271c5a,
        type: 3}
      propertyPath: m_LocalRotation.x
      value: 0
      objectReference: {fileID: 0}
    - target: {fileID: 3229460913408000729, guid: 461d81d2f9d7fd34cb99b71428271c5a,
        type: 3}
      propertyPath: m_LocalRotation.w
      value: 1
      objectReference: {fileID: 0}
    - target: {fileID: 3229460913408000729, guid: 461d81d2f9d7fd34cb99b71428271c5a,
        type: 3}
      propertyPath: m_LocalEulerAnglesHint.x
      value: 0
      objectReference: {fileID: 0}
    - target: {fileID: 3229460914570830617, guid: 461d81d2f9d7fd34cb99b71428271c5a,
        type: 3}
      propertyPath: m_LocalRotation.x
      value: 0.08715578
      objectReference: {fileID: 0}
    - target: {fileID: 3229460914570830617, guid: 461d81d2f9d7fd34cb99b71428271c5a,
        type: 3}
      propertyPath: m_LocalRotation.w
      value: 0.9961947
      objectReference: {fileID: 0}
    - target: {fileID: 3229460914570830617, guid: 461d81d2f9d7fd34cb99b71428271c5a,
        type: 3}
      propertyPath: m_LocalEulerAnglesHint.x
      value: 10
      objectReference: {fileID: 0}
    - target: {fileID: 3229460914915556755, guid: 461d81d2f9d7fd34cb99b71428271c5a,
        type: 3}
      propertyPath: m_LocalRotation.x
      value: 0.2164396
      objectReference: {fileID: 0}
    - target: {fileID: 3229460914915556755, guid: 461d81d2f9d7fd34cb99b71428271c5a,
        type: 3}
      propertyPath: m_LocalRotation.w
      value: 0.97629607
      objectReference: {fileID: 0}
    - target: {fileID: 3229460914915556755, guid: 461d81d2f9d7fd34cb99b71428271c5a,
        type: 3}
      propertyPath: m_LocalEulerAnglesHint.x
      value: 25
      objectReference: {fileID: 0}
    - target: {fileID: 3229460913255830236, guid: 461d81d2f9d7fd34cb99b71428271c5a,
        type: 3}
      propertyPath: m_LocalRotation.x
      value: -0.043619405
      objectReference: {fileID: 0}
    - target: {fileID: 3229460913255830236, guid: 461d81d2f9d7fd34cb99b71428271c5a,
        type: 3}
      propertyPath: m_LocalRotation.w
      value: 0.9990483
      objectReference: {fileID: 0}
    - target: {fileID: 3229460913255830236, guid: 461d81d2f9d7fd34cb99b71428271c5a,
        type: 3}
      propertyPath: m_LocalEulerAnglesHint.x
      value: -5
      objectReference: {fileID: 0}
    - target: {fileID: 3229460913526754493, guid: 461d81d2f9d7fd34cb99b71428271c5a,
        type: 3}
      propertyPath: m_LocalRotation.x
      value: -0.258819
      objectReference: {fileID: 0}
    - target: {fileID: 3229460913526754493, guid: 461d81d2f9d7fd34cb99b71428271c5a,
        type: 3}
      propertyPath: m_LocalRotation.w
      value: 0.9659259
      objectReference: {fileID: 0}
    - target: {fileID: 3229460913526754493, guid: 461d81d2f9d7fd34cb99b71428271c5a,
        type: 3}
      propertyPath: m_LocalEulerAnglesHint.x
      value: -30
      objectReference: {fileID: 0}
    - target: {fileID: 3229460912955362338, guid: 461d81d2f9d7fd34cb99b71428271c5a,
        type: 3}
      propertyPath: m_TagString
      value: Untagged
      objectReference: {fileID: 0}
    - target: {fileID: 3229460913255830239, guid: 461d81d2f9d7fd34cb99b71428271c5a,
        type: 3}
      propertyPath: m_TagString
      value: Untagged
      objectReference: {fileID: 0}
    - target: {fileID: 3229460913304309521, guid: 461d81d2f9d7fd34cb99b71428271c5a,
        type: 3}
      propertyPath: m_TagString
      value: Untagged
      objectReference: {fileID: 0}
    - target: {fileID: 3229460913408000728, guid: 461d81d2f9d7fd34cb99b71428271c5a,
        type: 3}
      propertyPath: m_TagString
      value: Untagged
      objectReference: {fileID: 0}
    - target: {fileID: 3229460913526754492, guid: 461d81d2f9d7fd34cb99b71428271c5a,
        type: 3}
      propertyPath: m_TagString
      value: Untagged
      objectReference: {fileID: 0}
    - target: {fileID: 3229460913540058775, guid: 461d81d2f9d7fd34cb99b71428271c5a,
        type: 3}
      propertyPath: m_TagString
      value: Untagged
      objectReference: {fileID: 0}
    - target: {fileID: 3229460913774327934, guid: 461d81d2f9d7fd34cb99b71428271c5a,
        type: 3}
      propertyPath: m_TagString
      value: Untagged
      objectReference: {fileID: 0}
    - target: {fileID: 3229460913846460289, guid: 461d81d2f9d7fd34cb99b71428271c5a,
        type: 3}
      propertyPath: m_TagString
      value: Untagged
      objectReference: {fileID: 0}
    - target: {fileID: 3229460914134981969, guid: 461d81d2f9d7fd34cb99b71428271c5a,
        type: 3}
      propertyPath: m_TagString
      value: Untagged
      objectReference: {fileID: 0}
    - target: {fileID: 3229460914186749718, guid: 461d81d2f9d7fd34cb99b71428271c5a,
        type: 3}
      propertyPath: m_TagString
      value: Untagged
      objectReference: {fileID: 0}
    - target: {fileID: 3229460914909920075, guid: 461d81d2f9d7fd34cb99b71428271c5a,
        type: 3}
      propertyPath: m_TagString
      value: Untagged
      objectReference: {fileID: 0}
    - target: {fileID: 3229460914915556754, guid: 461d81d2f9d7fd34cb99b71428271c5a,
        type: 3}
      propertyPath: m_TagString
      value: Untagged
      objectReference: {fileID: 0}
    m_RemovedComponents:
    - {fileID: 3229460914722491798, guid: 461d81d2f9d7fd34cb99b71428271c5a, type: 3}
    - {fileID: 3229460914498906007, guid: 461d81d2f9d7fd34cb99b71428271c5a, type: 3}
  m_SourcePrefab: {fileID: 100100000, guid: 461d81d2f9d7fd34cb99b71428271c5a, type: 3}
--- !u!4 &6225588441107883344 stripped
Transform:
  m_CorrespondingSourceObject: {fileID: 3229460913760531925, guid: 461d81d2f9d7fd34cb99b71428271c5a,
    type: 3}
  m_PrefabInstance: {fileID: 8841940616619692165}
  m_PrefabAsset: {fileID: 0}
